\relax 
\providecommand\hyper@newdestlabel[2]{}
\providecommand\HyperFirstAtBeginDocument{\AtBeginDocument}
\HyperFirstAtBeginDocument{\ifx\hyper@anchor\@undefined
\global\let\oldcontentsline\contentsline
\gdef\contentsline#1#2#3#4{\oldcontentsline{#1}{#2}{#3}}
\global\let\oldnewlabel\newlabel
\gdef\newlabel#1#2{\newlabelxx{#1}#2}
\gdef\newlabelxx#1#2#3#4#5#6{\oldnewlabel{#1}{{#2}{#3}}}
\AtEndDocument{\ifx\hyper@anchor\@undefined
\let\contentsline\oldcontentsline
\let\newlabel\oldnewlabel
\fi}
\fi}
\global\let\hyper@last\relax 
\gdef\HyperFirstAtBeginDocument#1{#1}
\providecommand\HyField@AuxAddToFields[1]{}
\providecommand\HyField@AuxAddToCoFields[2]{}
\catcode `"\active 
\AC@reset@newl@bel
\select@language{ngerman}
\@writefile{toc}{\select@language{ngerman}}
\@writefile{lof}{\select@language{ngerman}}
\@writefile{lot}{\select@language{ngerman}}
\@writefile{nav}{\headcommand {\slideentry {0}{0}{1}{1/1}{}{0}}}
\@writefile{nav}{\headcommand {\beamer@framepages {1}{1}}}
\@writefile{nav}{\headcommand {\slideentry {0}{0}{2}{2/2}{}{0}}}
\@writefile{nav}{\headcommand {\beamer@framepages {2}{2}}}
\@writefile{toc}{\beamer@sectionintoc {1}{1 Begriffskl\IeC {\"a}rung}{3}{0}{1}}
\@writefile{nav}{\headcommand {\sectionentry {1}{1 Begriffskl\IeC {\"a}rung}{3}{1 Begriffskl\IeC {\"a}rung}{0}}}
\@writefile{nav}{\headcommand {\beamer@sectionpages {1}{2}}}
\@writefile{nav}{\headcommand {\beamer@subsectionpages {1}{2}}}
\@writefile{nav}{\headcommand {\slideentry {1}{0}{1}{3/3}{}{0}}}
\@writefile{nav}{\headcommand {\beamer@framepages {3}{3}}}
\@writefile{toc}{\beamer@sectionintoc {2}{2 Topologien}{4}{0}{2}}
\@writefile{nav}{\headcommand {\sectionentry {2}{2 Topologien}{4}{2 Topologien}{0}}}
\@writefile{nav}{\headcommand {\beamer@sectionpages {3}{3}}}
\@writefile{nav}{\headcommand {\beamer@subsectionpages {3}{3}}}
\@writefile{nav}{\headcommand {\slideentry {2}{0}{1}{4/4}{}{0}}}
\@writefile{nav}{\headcommand {\beamer@framepages {4}{4}}}
\@writefile{nav}{\headcommand {\slideentry {2}{0}{2}{5/5}{}{0}}}
\@writefile{nav}{\headcommand {\beamer@framepages {5}{5}}}
\@writefile{nav}{\headcommand {\slideentry {2}{0}{3}{6/6}{}{0}}}
\@writefile{nav}{\headcommand {\beamer@framepages {6}{6}}}
\@writefile{toc}{\beamer@sectionintoc {3}{3 Signalisierung}{7}{0}{3}}
\@writefile{nav}{\headcommand {\sectionentry {3}{3 Signalisierung}{7}{3 Signalisierung}{0}}}
\@writefile{nav}{\headcommand {\beamer@sectionpages {4}{6}}}
\@writefile{nav}{\headcommand {\beamer@subsectionpages {4}{6}}}
\@writefile{nav}{\headcommand {\slideentry {3}{0}{1}{7/7}{}{0}}}
\@writefile{nav}{\headcommand {\beamer@framepages {7}{7}}}
\@writefile{nav}{\headcommand {\slideentry {3}{0}{2}{8/8}{}{0}}}
\@writefile{nav}{\headcommand {\beamer@framepages {8}{8}}}
\@writefile{nav}{\headcommand {\slideentry {3}{0}{3}{9/9}{}{0}}}
\@writefile{nav}{\headcommand {\beamer@framepages {9}{9}}}
\providecommand*\caption@xref[2]{\@setref\relax\@undefined{#1}}
\newlabel{fig:webrtc:triangle}{{\caption@xref {fig:webrtc:triangle}{ on input line 274}}{10}{3 Signalisierung}{Doc-Start}{}}
\@writefile{snm}{\beamer@slide {fig:webrtc:triangle}{10}}
\newlabel{sub@fig:webrtc:triangle}{{}{10}{3 Signalisierung}{Doc-Start}{}}
\@writefile{snm}{\beamer@slide {sub@fig:webrtc:triangle}{10}}
\newlabel{fig:webrtc:trapezoid}{{\caption@xref {fig:webrtc:trapezoid}{ on input line 274}}{10}{3 Signalisierung}{Doc-Start}{}}
\@writefile{snm}{\beamer@slide {fig:webrtc:trapezoid}{10}}
\newlabel{sub@fig:webrtc:trapezoid}{{}{10}{3 Signalisierung}{Doc-Start}{}}
\@writefile{snm}{\beamer@slide {sub@fig:webrtc:trapezoid}{10}}
\@writefile{nav}{\headcommand {\slideentry {3}{0}{4}{10/10}{}{0}}}
\@writefile{nav}{\headcommand {\beamer@framepages {10}{10}}}
\@writefile{toc}{\beamer@sectionintoc {4}{4 F\IeC {\"o}deration}{11}{0}{4}}
\@writefile{nav}{\headcommand {\sectionentry {4}{4 F\IeC {\"o}deration}{11}{4 F\IeC {\"o}deration}{0}}}
\@writefile{nav}{\headcommand {\beamer@sectionpages {7}{10}}}
\@writefile{nav}{\headcommand {\beamer@subsectionpages {7}{10}}}
\@writefile{nav}{\headcommand {\slideentry {4}{0}{1}{11/11}{}{0}}}
\@writefile{nav}{\headcommand {\beamer@framepages {11}{11}}}
\@writefile{nav}{\headcommand {\slideentry {4}{0}{2}{12/12}{}{0}}}
\@writefile{nav}{\headcommand {\beamer@framepages {12}{12}}}
\@writefile{nav}{\headcommand {\slideentry {4}{0}{3}{13/13}{}{0}}}
\@writefile{nav}{\headcommand {\beamer@framepages {13}{13}}}
\@writefile{nav}{\headcommand {\slideentry {4}{0}{4}{14/14}{}{0}}}
\@writefile{nav}{\headcommand {\beamer@framepages {14}{14}}}
\@writefile{nav}{\headcommand {\slideentry {4}{0}{5}{15/15}{}{0}}}
\@writefile{nav}{\headcommand {\beamer@framepages {15}{15}}}
\@writefile{toc}{\beamer@sectionintoc {5}{5 Fallstricke bei der Implementierung}{16}{0}{5}}
\@writefile{nav}{\headcommand {\sectionentry {5}{5 Fallstricke bei der Implementierung}{16}{5 Fallstricke bei der Implementierung}{0}}}
\@writefile{nav}{\headcommand {\beamer@sectionpages {11}{15}}}
\@writefile{nav}{\headcommand {\beamer@subsectionpages {11}{15}}}
\@writefile{nav}{\headcommand {\slideentry {5}{0}{1}{16/16}{}{0}}}
\@writefile{nav}{\headcommand {\beamer@framepages {16}{16}}}
\@writefile{toc}{\beamer@sectionintoc {6}{6 Zus\IeC {\"a}tzliche Informationen}{17}{0}{6}}
\@writefile{nav}{\headcommand {\sectionentry {6}{6 Zus\IeC {\"a}tzliche Informationen}{17}{6 Zus\IeC {\"a}tzliche Informationen}{0}}}
\@writefile{nav}{\headcommand {\beamer@sectionpages {16}{16}}}
\@writefile{nav}{\headcommand {\beamer@subsectionpages {16}{16}}}
\@writefile{nav}{\headcommand {\slideentry {6}{0}{1}{17/17}{}{0}}}
\@writefile{nav}{\headcommand {\beamer@framepages {17}{17}}}
\@writefile{toc}{\beamer@sectionintoc {7}{7 Kompatibilit\IeC {\"a}t}{18}{0}{7}}
\@writefile{nav}{\headcommand {\sectionentry {7}{7 Kompatibilit\IeC {\"a}t}{18}{7 Kompatibilit\IeC {\"a}t}{0}}}
\@writefile{nav}{\headcommand {\beamer@sectionpages {17}{17}}}
\@writefile{nav}{\headcommand {\beamer@subsectionpages {17}{17}}}
\@writefile{nav}{\headcommand {\slideentry {7}{0}{1}{18/18}{}{0}}}
\@writefile{nav}{\headcommand {\beamer@framepages {18}{18}}}
\@writefile{toc}{\beamer@sectionintoc {8}{8 Schlussfolgerung}{19}{0}{8}}
\@writefile{nav}{\headcommand {\sectionentry {8}{8 Schlussfolgerung}{19}{8 Schlussfolgerung}{0}}}
\@writefile{nav}{\headcommand {\beamer@sectionpages {18}{18}}}
\@writefile{nav}{\headcommand {\beamer@subsectionpages {18}{18}}}
\@writefile{nav}{\headcommand {\slideentry {8}{0}{1}{19/19}{}{0}}}
\@writefile{nav}{\headcommand {\beamer@framepages {19}{19}}}
\@writefile{toc}{\beamer@sectionintoc {9}{9 Demonstration}{20}{0}{9}}
\@writefile{nav}{\headcommand {\sectionentry {9}{9 Demonstration}{20}{9 Demonstration}{0}}}
\@writefile{nav}{\headcommand {\beamer@sectionpages {19}{19}}}
\@writefile{nav}{\headcommand {\beamer@subsectionpages {19}{19}}}
\@writefile{nav}{\headcommand {\slideentry {9}{0}{1}{20/20}{}{0}}}
\@writefile{nav}{\headcommand {\beamer@framepages {20}{20}}}
\@writefile{toc}{\beamer@sectionintoc {10}{Quellen}{21}{0}{10}}
\@writefile{nav}{\headcommand {\sectionentry {10}{Quellen}{21}{Quellen}{0}}}
\@writefile{nav}{\headcommand {\beamer@sectionpages {20}{20}}}
\@writefile{nav}{\headcommand {\beamer@subsectionpages {20}{20}}}
\@writefile{nav}{\headcommand {\slideentry {10}{0}{1}{21/21}{}{0}}}
\@writefile{nav}{\headcommand {\beamer@framepages {21}{21}}}
\@writefile{nav}{\headcommand {\slideentry {10}{0}{2}{22/22}{}{0}}}
\@writefile{nav}{\headcommand {\beamer@framepages {22}{22}}}
\@writefile{nav}{\headcommand {\slideentry {10}{0}{3}{23/23}{}{0}}}
\@writefile{nav}{\headcommand {\beamer@framepages {23}{23}}}
\@writefile{nav}{\headcommand {\beamer@partpages {1}{23}}}
\@writefile{nav}{\headcommand {\beamer@subsectionpages {21}{23}}}
\@writefile{nav}{\headcommand {\beamer@sectionpages {21}{23}}}
\@writefile{nav}{\headcommand {\beamer@documentpages {23}}}
\@writefile{nav}{\headcommand {\def \inserttotalframenumber {23}}}
