\select@language {ngerman}
\beamer@sectionintoc {1}{1 Begriffskl\IeC {\"a}rung}{3}{0}{1}
\beamer@sectionintoc {2}{2 Topologien}{4}{0}{2}
\beamer@sectionintoc {3}{3 Signalisierung}{7}{0}{3}
\beamer@sectionintoc {4}{4 F\IeC {\"o}deration}{11}{0}{4}
\beamer@sectionintoc {5}{5 Fallstricke bei der Implementierung}{16}{0}{5}
\beamer@sectionintoc {6}{6 Zus\IeC {\"a}tzliche Informationen}{17}{0}{6}
\beamer@sectionintoc {7}{7 Kompatibilit\IeC {\"a}t}{18}{0}{7}
\beamer@sectionintoc {8}{8 Schlussfolgerung}{19}{0}{8}
\beamer@sectionintoc {9}{9 Demonstration}{20}{0}{9}
\beamer@sectionintoc {10}{Quellen}{21}{0}{10}
